filename,width,height,class,xmin,ymin,xmax,ymax
hiker-travel-trip-wander-163688.jpeg,640,402,road,106,241,354,263
hiker-travel-trip-wander-163688.jpeg,640,402,road,3,267,355,315
hiker-travel-trip-wander-163688.jpeg,640,402,road,3,323,630,399
hiker-travel-trip-wander-163688.jpeg,640,402,road,185,229,350,239
hiker-travel-trip-wander-163688.jpeg,640,402,bag,452,96,554,322
hiker-travel-trip-wander-163688.jpeg,640,402,person,325,6,436,319
Holland_tunnel.jpg,2114,1600,car,623,1160,801,1308
Holland_tunnel.jpg,2114,1600,road,465,1310,1409,1369
Holland_tunnel.jpg,2114,1600,road,342,1379,1690,1467
Holland_tunnel.jpg,2114,1600,road,175,1475,2100,1590
Hong_Kong_Western_Harbour_Tunnel_Island_Entrance.jpg,640,480,road,155,343,400,356
Hong_Kong_Western_Harbour_Tunnel_Island_Entrance.jpg,640,480,road,74,360,287,382
Hong_Kong_Western_Harbour_Tunnel_Island_Entrance.jpg,640,480,road,19,385,284,408
Hong_Kong_Western_Harbour_Tunnel_Island_Entrance.jpg,640,480,road,3,411,283,476
Hong_Kong_Western_Harbour_Tunnel_Island_Entrance.jpg,640,480,road,285,437,571,480
Hong_Kong_Western_Harbour_Tunnel_Island_Entrance.jpg,640,480,road,363,364,482,432
Hong_Kong_Western_Harbour_Tunnel_Island_Entrance.jpg,640,480,car,239,304,271,347
i41ph76gfb_20140916_041400.png.jpg,640,387,road,102,258,317,274
i41ph76gfb_20140916_041400.png.jpg,640,387,road,326,266,634,283
i41ph76gfb_20140916_041400.png.jpg,640,387,road,279,288,633,306
i41ph76gfb_20140916_041400.png.jpg,640,387,road,180,313,640,342
i41ph76gfb_20140916_041400.png.jpg,640,387,road,20,344,637,384
i41ph76gfb_20140916_041400.png.jpg,640,387,road,481,247,640,265
i41ph76gfb_20140916_041400.png.jpg,640,387,road,519,235,638,243
i41ph76gfb_20140916_041400.png.jpg,640,387,road,244,248,290,254
i41ph76gfb_20140916_041400.png.jpg,640,387,traffic camera,189,55,236,80
images.jpg,264,191,car,122,94,145,114
images.jpg,264,191,road,4,119,111,125
images.jpg,264,191,road,1,127,260,133
images.jpg,264,191,road,1,136,263,147
images.jpg,264,191,road,1,149,262,164
images.jpg,264,191,road,1,167,262,188
images.jpg,264,191,road,147,103,246,112
Intersection_of_Bombing_Range_Road_and_Van_Giesen_Street_3.jpg,3264,2448,road,798,1306,2257,1379
Intersection_of_Bombing_Range_Road_and_Van_Giesen_Street_3.jpg,3264,2448,road,892,1394,2419,1494
Intersection_of_Bombing_Range_Road_and_Van_Giesen_Street_3.jpg,3264,2448,road,689,1506,3257,1582
Intersection_of_Bombing_Range_Road_and_Van_Giesen_Street_3.jpg,3264,2448,road,648,1609,3248,1738
Intersection_of_Bombing_Range_Road_and_Van_Giesen_Street_3.jpg,3264,2448,road,786,1788,3251,1935
Intersection_of_Bombing_Range_Road_and_Van_Giesen_Street_3.jpg,3264,2448,road,907,1971,3231,2132
Intersection_of_Bombing_Range_Road_and_Van_Giesen_Street_3.jpg,3264,2448,road,978,2165,3251,2403
japan-earthquake-fixed-road.jpg,800,450,road,436,118,547,130
japan-earthquake-fixed-road.jpg,800,450,road,298,132,549,143
japan-earthquake-fixed-road.jpg,800,450,road,189,145,554,156
japan-earthquake-fixed-road.jpg,800,450,road,118,159,553,178
japan-earthquake-fixed-road.jpg,800,450,road,2,180,569,220
japan-earthquake-fixed-road.jpg,800,450,road,1,223,586,264
japan-earthquake-fixed-road.jpg,800,450,road,3,268,613,307
japan-earthquake-fixed-road.jpg,800,450,road,2,314,625,367
japan-earthquake-fixed-road.jpg,800,450,road,2,372,662,443
Karawankentunnel_Oesterreich.jpg,1024,630,road,503,503,739,515
Karawankentunnel_Oesterreich.jpg,1024,630,road,430,517,828,538
Karawankentunnel_Oesterreich.jpg,1024,630,road,282,541,1008,566
Karawankentunnel_Oesterreich.jpg,1024,630,road,132,568,1024,603
Karawankentunnel_Oesterreich.jpg,1024,630,placat,793,416,854,452
M62_FEAT_ProtectedBikeLanes_Vancouver_Dunsmuir_Photo-Paul-Krueger.jpg,600,400,road,265,241,509,282
M62_FEAT_ProtectedBikeLanes_Vancouver_Dunsmuir_Photo-Paul-Krueger.jpg,600,400,road,266,287,534,310
M62_FEAT_ProtectedBikeLanes_Vancouver_Dunsmuir_Photo-Paul-Krueger.jpg,600,400,road,260,314,574,336
M62_FEAT_ProtectedBikeLanes_Vancouver_Dunsmuir_Photo-Paul-Krueger.jpg,600,400,road,247,343,597,395
M62_FEAT_ProtectedBikeLanes_Vancouver_Dunsmuir_Photo-Paul-Krueger.jpg,600,400,road,110,232,203,253
M62_FEAT_ProtectedBikeLanes_Vancouver_Dunsmuir_Photo-Paul-Krueger.jpg,600,400,road,360,209,486,239
M62_FEAT_ProtectedBikeLanes_Vancouver_Dunsmuir_Photo-Paul-Krueger.jpg,600,400,car,300,167,360,242
M62_FEAT_ProtectedBikeLanes_Vancouver_Dunsmuir_Photo-Paul-Krueger.jpg,600,400,car,367,164,413,201
M62_FEAT_ProtectedBikeLanes_Vancouver_Dunsmuir_Photo-Paul-Krueger.jpg,600,400,car,299,130,327,155
M62_FEAT_ProtectedBikeLanes_Vancouver_Dunsmuir_Photo-Paul-Krueger.jpg,600,400,car,346,122,377,147
M62_FEAT_ProtectedBikeLanes_Vancouver_Dunsmuir_Photo-Paul-Krueger.jpg,600,400,person,93,201,109,247
M62_FEAT_ProtectedBikeLanes_Vancouver_Dunsmuir_Photo-Paul-Krueger.jpg,600,400,person,9,261,35,328
M62_FEAT_ProtectedBikeLanes_Vancouver_Dunsmuir_Photo-Paul-Krueger.jpg,600,400,person,135,275,159,361
M62_FEAT_ProtectedBikeLanes_Vancouver_Dunsmuir_Photo-Paul-Krueger.jpg,600,400,person,198,277,220,348
M62_FEAT_ProtectedBikeLanes_Vancouver_Dunsmuir_Photo-Paul-Krueger.jpg,600,400,person,179,255,194,331
M62_FEAT_ProtectedBikeLanes_Vancouver_Dunsmuir_Photo-Paul-Krueger.jpg,600,400,person,215,234,231,281
M62_FEAT_ProtectedBikeLanes_Vancouver_Dunsmuir_Photo-Paul-Krueger.jpg,600,400,person,169,164,180,196
M62_FEAT_ProtectedBikeLanes_Vancouver_Dunsmuir_Photo-Paul-Krueger.jpg,600,400,person,441,156,450,187
M62_FEAT_ProtectedBikeLanes_Vancouver_Dunsmuir_Photo-Paul-Krueger.jpg,600,400,person,473,169,485,207
"M6_Toll_plaza,_Great_Wyrley.jpg",610,407,road,197,170,481,185
"M6_Toll_plaza,_Great_Wyrley.jpg",610,407,road,179,186,487,204
"M6_Toll_plaza,_Great_Wyrley.jpg",610,407,road,157,205,499,225
"M6_Toll_plaza,_Great_Wyrley.jpg",610,407,road,122,249,515,273
"M6_Toll_plaza,_Great_Wyrley.jpg",610,407,road,103,276,532,293
"M6_Toll_plaza,_Great_Wyrley.jpg",610,407,road,84,297,546,316
"M6_Toll_plaza,_Great_Wyrley.jpg",610,407,road,64,320,558,337
"M6_Toll_plaza,_Great_Wyrley.jpg",610,407,road,44,339,590,401
maxresdefault.jpg,1280,720,road,678,451,886,471
maxresdefault.jpg,1280,720,road,634,478,909,499
maxresdefault.jpg,1280,720,road,573,500,950,527
maxresdefault.jpg,1280,720,road,535,533,997,554
maxresdefault.jpg,1280,720,road,496,558,1035,588
maxresdefault.jpg,1280,720,road,433,594,1100,625
maxresdefault.jpg,1280,720,road,377,633,1232,711
most-famous-streets-abbey-road.jpg,1000,750,road,418,393,574,405
most-famous-streets-abbey-road.jpg,1000,750,road,391,406,618,424
most-famous-streets-abbey-road.jpg,1000,750,road,347,427,677,447
most-famous-streets-abbey-road.jpg,1000,750,road,291,452,728,476
most-famous-streets-abbey-road.jpg,1000,750,road,206,482,821,522
most-famous-streets-abbey-road.jpg,1000,750,road,72,526,953,576
most-famous-streets-abbey-road.jpg,1000,750,road,13,581,1000,748
nft32wjz-1361441315.jpg,754,566,road,1,460,440,558
nft32wjz-1361441315.jpg,754,566,road,271,325,399,367
nft32wjz-1361441315.jpg,754,566,road,180,373,311,414
nft32wjz-1361441315.jpg,754,566,road,191,419,430,458
nft32wjz-1361441315.jpg,754,566,road,5,411,119,455
nft32wjz-1361441315.jpg,754,566,road,289,289,397,303
nft32wjz-1361441315.jpg,754,566,road,451,378,750,408
nft32wjz-1361441315.jpg,754,566,road,454,414,749,453
nft32wjz-1361441315.jpg,754,566,road,474,464,751,548
nft32wjz-1361441315.jpg,754,566,road,420,297,559,322
NHAI-L.jpg,660,440,road,4,272,246,429
pexels-photo-1021683.jpeg,640,423,road,303,288,417,296
pexels-photo-1021683.jpeg,640,423,road,192,300,471,314
pexels-photo-1021683.jpeg,640,423,road,101,316,540,342
pexels-photo-1021683.jpeg,640,423,road,2,345,636,419
pexels-photo-103311.jpeg,640,360,road,306,152,346,159
pexels-photo-103311.jpeg,640,360,road,279,163,371,173
pexels-photo-103311.jpeg,640,360,road,248,178,404,187
pexels-photo-103311.jpeg,640,360,road,229,189,426,210
pexels-photo-103311.jpeg,640,360,road,182,213,471,240
pexels-photo-103311.jpeg,640,360,road,114,242,539,258
pexels-photo-103311.jpeg,640,360,road,79,261,582,288
pexels-photo-103311.jpeg,640,360,road,31,292,636,359
pexels-photo-1038935.jpeg,640,426,road,302,188,342,200
pexels-photo-1038935.jpeg,640,426,road,290,204,350,218
pexels-photo-1038935.jpeg,640,426,road,279,223,367,234
pexels-photo-1038935.jpeg,640,426,road,250,237,380,264
pexels-photo-1038935.jpeg,640,426,road,198,264,444,298
pexels-photo-1038935.jpeg,640,426,road,128,300,518,351
pexels-photo-1038935.jpeg,640,426,road,6,356,634,425
pexels-photo-105032.jpeg,640,426,car,232,186,429,341
pexels-photo-105032.jpeg,640,426,road,11,349,640,424
pexels-photo-105234.jpeg,200,133,road,80,71,114,78
pexels-photo-105234.jpeg,200,133,road,40,80,145,86
pexels-photo-105234.jpeg,200,133,road,19,87,173,108
pexels-photo-105234.jpeg,200,133,road,1,109,198,133
pexels-photo-105238.jpeg,640,426,road,297,220,340,228
pexels-photo-105238.jpeg,640,426,road,263,232,364,237
pexels-photo-105238.jpeg,640,426,road,244,241,387,249
pexels-photo-105238.jpeg,640,426,road,204,253,418,265
pexels-photo-105238.jpeg,640,426,road,182,270,446,276
pexels-photo-105238.jpeg,640,426,road,144,278,476,302
pexels-photo-105238.jpeg,640,426,road,86,307,543,327
pexels-photo-105238.jpeg,640,426,road,41,332,620,369
pexels-photo-105238.jpeg,640,426,road,2,371,634,418
pexels-photo-108444.jpeg,640,426,road,329,262,383,271
pexels-photo-108444.jpeg,640,426,road,301,276,421,285
pexels-photo-108444.jpeg,640,426,road,270,286,461,301
pexels-photo-108444.jpeg,640,426,road,213,304,496,319
pexels-photo-108444.jpeg,640,426,road,180,322,547,342
pexels-photo-108444.jpeg,640,426,road,130,346,634,423
pexels-photo-1096793.jpeg,640,426,road,388,297,634,319
pexels-photo-1096793.jpeg,640,426,road,238,323,635,351
pexels-photo-1096793.jpeg,640,426,road,30,354,640,425
pexels-photo-1096793.jpeg,640,426,road,393,192,432,201
pexels-photo-1096793.jpeg,640,426,road,396,205,444,216
pexels-photo-1096793.jpeg,640,426,road,395,220,447,235
pexels-photo-1096793.jpeg,640,426,road,401,174,433,191
pexels-photo-1102914.jpeg,640,360,road,299,217,341,222
pexels-photo-1102914.jpeg,640,360,road,281,226,362,232
pexels-photo-1102914.jpeg,640,360,road,255,235,397,248
pexels-photo-1102914.jpeg,640,360,road,215,248,432,261
pexels-photo-1102914.jpeg,640,360,road,173,266,482,285
pexels-photo-1102914.jpeg,640,360,road,131,288,510,310
pexels-photo-1102914.jpeg,640,360,road,36,315,620,359
pexels-photo-111091.jpeg,640,426,road,307,234,357,242
pexels-photo-111091.jpeg,640,426,road,276,245,385,252
pexels-photo-111091.jpeg,640,426,road,255,255,409,273
pexels-photo-111091.jpeg,640,426,road,200,276,465,297
pexels-photo-111091.jpeg,640,426,road,136,300,518,323
pexels-photo-111091.jpeg,640,426,road,55,329,609,365
pexels-photo-111091.jpeg,640,426,road,8,369,633,420
pexels-photo-1133505.jpeg,640,426,road,299,256,349,261
pexels-photo-1133505.jpeg,640,426,road,280,266,369,272
pexels-photo-1133505.jpeg,640,426,road,254,276,396,287
pexels-photo-1133505.jpeg,640,426,road,214,290,433,307
pexels-photo-1133505.jpeg,640,426,road,161,309,478,329
pexels-photo-1133505.jpeg,640,426,road,110,332,548,358
pexels-photo-1133505.jpeg,640,426,road,40,360,624,420
pexels-photo-1172105.jpeg,640,338,road,547,201,597,203
pexels-photo-1172105.jpeg,640,338,road,507,207,599,210
pexels-photo-1172105.jpeg,640,338,road,462,212,601,224
pexels-photo-1172105.jpeg,640,338,road,385,228,617,242
pexels-photo-1172105.jpeg,640,338,road,361,247,636,265
pexels-photo-1172105.jpeg,640,338,road,325,268,635,293
pexels-photo-1172105.jpeg,640,338,road,17,296,619,310
pexels-photo-1172105.jpeg,640,338,car,194,190,368,272
pexels-photo-127260.jpeg,640,418,road,269,265,365,269
pexels-photo-127260.jpeg,640,418,road,235,272,390,280
pexels-photo-127260.jpeg,640,418,road,191,284,417,293
pexels-photo-127260.jpeg,640,418,road,128,296,445,317
pexels-photo-127260.jpeg,640,418,road,2,318,530,411
pexels-photo-128234.jpeg,200,133,road,2,116,198,132
pexels-photo-128234.jpeg,200,133,road,19,105,189,115
pexels-photo-128234.jpeg,200,133,road,40,94,163,103
pexels-photo-128234.jpeg,200,133,road,59,85,123,92
pexels-photo-137633.jpeg,640,353,road,154,186,254,199
pexels-photo-137633.jpeg,640,353,road,165,202,375,216
pexels-photo-137633.jpeg,640,353,road,229,220,504,241
pexels-photo-137633.jpeg,640,353,road,273,242,632,283
pexels-photo-139803.jpeg,640,427,road,82,284,513,310
pexels-photo-139803.jpeg,640,427,road,73,312,465,339
pexels-photo-139803.jpeg,640,427,road,94,341,342,369
pexels-photo-139803.jpeg,640,427,road,111,259,240,278
pexels-photo-139803.jpeg,640,427,road,167,244,261,258
pexels-photo-139803.jpeg,640,427,road,210,230,280,244
pexels-photo-139803.jpeg,640,427,road,394,260,585,283
pexels-photo-139803.jpeg,640,427,road,470,238,620,257
pexels-photo-139803.jpeg,640,427,road,536,222,639,234
pexels-photo-169572.jpeg,640,426,road,1,332,637,422
pexels-photo-169572.jpeg,640,426,road,356,297,487,319
pexels-photo-169572.jpeg,640,426,car,493,257,613,323
pexels-photo-170286.jpeg,640,360,road,259,192,393,197
pexels-photo-170286.jpeg,640,360,road,202,200,432,214
pexels-photo-170286.jpeg,640,360,road,99,218,447,243
pexels-photo-170286.jpeg,640,360,road,3,246,637,358
pexels-photo-172074.jpeg,640,426,road,145,331,458,344
pexels-photo-172074.jpeg,640,426,road,186,306,446,327
pexels-photo-172074.jpeg,640,426,road,245,288,338,303
pexels-photo-172074.jpeg,640,426,car,288,255,314,283
pexels-photo-172074.jpeg,640,426,truck,338,195,421,295
pexels-photo-172074.jpeg,640,426,truck,456,74,634,352
pexels-photo-186405.jpeg,640,312,road,2,217,637,311
pexels-photo-186405.jpeg,640,312,road,1,122,634,212
pexels-photo-186405.jpeg,640,312,road,1,4,584,121
pexels-photo-193667.jpeg,640,359,road,277,265,391,274
pexels-photo-193667.jpeg,640,359,road,189,277,457,286
pexels-photo-193667.jpeg,640,359,road,1,288,636,302
pexels-photo-193667.jpeg,640,359,road,1,304,640,357
pexels-photo-193667.jpeg,640,359,truck,200,184,276,267
pexels-photo-209652.jpeg,200,126,road,1,91,199,125
pexels-photo-210092.jpeg,640,368,road,132,258,225,275
pexels-photo-210092.jpeg,640,368,road,68,279,328,293
pexels-photo-210092.jpeg,640,368,road,1,296,602,367
pexels-photo-210092.jpeg,640,368,road,336,276,602,293
pexels-photo-220996.jpeg,640,426,road,72,164,281,173
pexels-photo-220996.jpeg,640,426,road,49,178,381,190
pexels-photo-220996.jpeg,640,426,road,37,194,476,228
pexels-photo-220996.jpeg,640,426,road,7,232,635,284
pexels-photo-220996.jpeg,640,426,road,4,291,636,425
pexels-photo-220996.jpeg,640,426,car,516,112,619,178
pexels-photo-220996.jpeg,640,426,person,154,106,171,164
pexels-photo-226460.jpeg,640,426,road,191,252,297,260
pexels-photo-226460.jpeg,640,426,road,167,262,295,272
pexels-photo-226460.jpeg,640,426,road,150,273,297,280
pexels-photo-226460.jpeg,640,426,road,131,285,296,294
pexels-photo-226460.jpeg,640,426,road,102,296,294,307
pexels-photo-226460.jpeg,640,426,road,74,311,291,327
pexels-photo-226460.jpeg,640,426,road,56,332,292,422
pexels-photo-226460.jpeg,640,426,road,339,280,495,287
pexels-photo-226460.jpeg,640,426,road,341,293,525,302
pexels-photo-226460.jpeg,640,426,road,345,305,554,318
pexels-photo-226460.jpeg,640,426,road,356,321,595,334
pexels-photo-226460.jpeg,640,426,road,361,339,638,360
pexels-photo-226460.jpeg,640,426,road,379,365,634,420
pexels-photo-226460.jpeg,640,426,car,375,258,401,277
pexels-photo-229014.jpeg,200,133,road,76,68,122,71
pexels-photo-229014.jpeg,200,133,road,49,72,152,77
pexels-photo-229014.jpeg,200,133,road,13,77,182,83
pexels-photo-229014.jpeg,200,133,road,1,85,200,132
pexels-photo-239520.jpeg,200,133,road,90,78,111,80
pexels-photo-239520.jpeg,200,133,road,80,81,119,85
pexels-photo-239520.jpeg,200,133,road,63,87,133,91
pexels-photo-239520.jpeg,200,133,road,47,93,154,98
pexels-photo-239520.jpeg,200,133,road,30,98,171,105
pexels-photo-239520.jpeg,200,133,road,1,108,200,132
pexels-photo-240528.jpeg,640,425,road,284,291,376,304
pexels-photo-240528.jpeg,640,425,road,247,307,417,315
pexels-photo-240528.jpeg,640,425,road,227,318,451,332
pexels-photo-240528.jpeg,640,425,road,192,334,497,357
pexels-photo-240528.jpeg,640,425,road,142,359,566,382
pexels-photo-240528.jpeg,640,425,road,95,383,637,424
pexels-photo-24821.jpg,640,427,road,329,314,357,320
pexels-photo-24821.jpg,640,427,road,320,324,359,329
pexels-photo-24821.jpg,640,427,road,316,334,363,350
pexels-photo-24821.jpg,640,427,road,265,353,381,361
pexels-photo-24821.jpg,640,427,road,205,365,414,379
pexels-photo-24821.jpg,640,427,road,104,382,504,427
pexels-photo-24821.jpg,640,427,road,7,384,98,427
pexels-photo-250659.jpeg,640,426,road,267,209,355,216
pexels-photo-250659.jpeg,640,426,road,210,218,402,230
pexels-photo-250659.jpeg,640,426,road,130,232,468,247
pexels-photo-250659.jpeg,640,426,road,100,251,555,269
pexels-photo-250659.jpeg,640,426,road,7,274,611,313
pexels-photo-250659.jpeg,640,426,road,1,316,635,421
pexels-photo-257837.jpeg,640,426,road,252,209,340,219
pexels-photo-257837.jpeg,640,426,road,170,221,339,235
pexels-photo-257837.jpeg,640,426,road,75,238,348,254
pexels-photo-257837.jpeg,640,426,road,2,258,370,274
pexels-photo-257837.jpeg,640,426,road,2,277,384,421
pexels-photo-258447.jpeg,640,477,road,133,313,551,332
pexels-photo-258447.jpeg,640,477,road,1,333,640,380
pexels-photo-258447.jpeg,640,477,road,1,381,640,474
pexels-photo-266044.jpeg,640,360,road,193,199,271,214
pexels-photo-266044.jpeg,640,360,road,173,215,266,232
pexels-photo-266044.jpeg,640,360,road,151,236,266,257
pexels-photo-266044.jpeg,640,360,road,120,260,260,289
pexels-photo-266044.jpeg,640,360,road,83,293,257,324
pexels-photo-266044.jpeg,640,360,road,42,327,258,359
pexels-photo-290470.jpeg,640,426,road,3,324,474,422
pexels-photo-290470.jpeg,640,426,road,128,293,387,322
pexels-photo-290470.jpeg,640,426,road,211,275,378,291
pexels-photo-313415.jpeg,640,426,road,193,245,276,251
pexels-photo-313415.jpeg,640,426,road,156,254,342,261
pexels-photo-313415.jpeg,640,426,road,115,263,417,276
pexels-photo-313415.jpeg,640,426,road,60,278,554,296
pexels-photo-313415.jpeg,640,426,road,3,299,636,423
pexels-photo-325288.jpeg,640,360,road,272,288,326,292
pexels-photo-325288.jpeg,640,360,road,230,295,338,305
pexels-photo-325288.jpeg,640,360,road,175,308,361,320
pexels-photo-325288.jpeg,640,360,road,84,325,409,360
pexels-photo-327308(1).jpeg,640,426,road,283,252,347,263
pexels-photo-327308(1).jpeg,640,426,road,262,265,366,274
pexels-photo-327308(1).jpeg,640,426,road,240,279,382,288
pexels-photo-327308(1).jpeg,640,426,road,221,294,403,302
pexels-photo-327308(1).jpeg,640,426,road,202,304,429,318
pexels-photo-327308(1).jpeg,640,426,road,182,321,447,334
pexels-photo-327308(1).jpeg,640,426,road,156,335,469,347
pexels-photo-327308(1).jpeg,640,426,road,134,350,487,370
pexels-photo-327308(1).jpeg,640,426,road,101,373,531,421
pexels-photo-327308.jpeg,640,426,road,286,253,348,260
pexels-photo-327308.jpeg,640,426,road,263,261,360,271
pexels-photo-327308.jpeg,640,426,road,249,273,378,285
pexels-photo-327308.jpeg,640,426,road,231,288,399,300
pexels-photo-327308.jpeg,640,426,road,209,303,422,318
pexels-photo-327308.jpeg,640,426,road,172,324,449,341
pexels-photo-327308.jpeg,640,426,road,143,345,484,376
pexels-photo-327308.jpeg,640,426,road,86,376,528,416
pexels-photo-327316.jpeg,640,480,road,178,231,271,243
pexels-photo-327316.jpeg,640,480,road,185,244,349,253
pexels-photo-327316.jpeg,640,480,road,206,260,466,273
pexels-photo-327316.jpeg,640,480,road,240,279,635,302
pexels-photo-327316.jpeg,640,480,road,295,308,634,342
pexels-photo-355223.jpeg,640,426,road,327,220,368,226
pexels-photo-355223.jpeg,640,426,road,305,229,390,240
pexels-photo-355223.jpeg,640,426,road,273,245,418,262
pexels-photo-355223.jpeg,640,426,road,233,266,463,294
pexels-photo-355223.jpeg,640,426,road,170,298,522,304
pexels-photo-355223.jpeg,640,426,road,124,311,563,329
pexels-photo-355223.jpeg,640,426,road,82,332,601,363
pexels-photo-355223.jpeg,640,426,road,3,366,638,422
pexels-photo-358243.jpeg,640,426,road,3,355,639,422
pexels-photo-358243.jpeg,640,426,road,229,325,376,354
pexels-photo-371578.jpeg,640,426,road,293,245,341,255
pexels-photo-371578.jpeg,640,426,road,257,259,377,275
pexels-photo-371578.jpeg,640,426,road,218,278,422,299
pexels-photo-371578.jpeg,640,426,road,163,303,488,342
pexels-photo-371578.jpeg,640,426,road,4,350,632,420
pexels-photo-371578.jpeg,640,426,road,88,329,161,345
pexels-photo-373289.jpeg,640,426,road,117,174,179,188
pexels-photo-373289.jpeg,640,426,road,71,193,249,200
pexels-photo-373289.jpeg,640,426,road,48,204,294,211
pexels-photo-373289.jpeg,640,426,road,17,215,333,234
pexels-photo-373289.jpeg,640,426,road,2,240,347,257
pexels-photo-373289.jpeg,640,426,road,3,262,361,292
pexels-photo-373289.jpeg,640,426,road,9,331,633,417
pexels-photo-373289.jpeg,640,426,person,347,148,419,328
pexels-photo-378570.jpeg,640,409,person,54,327,82,403
pexels-photo-378570.jpeg,640,409,person,405,324,422,384
pexels-photo-378570.jpeg,640,409,person,524,322,540,400
pexels-photo-378570.jpeg,640,409,person,540,324,563,402
pexels-photo-378570.jpeg,640,409,car,208,321,259,363
pexels-photo-378570.jpeg,640,409,car,289,315,322,356
pexels-photo-378570.jpeg,640,409,road,170,364,396,379
pexels-photo-378570.jpeg,640,409,road,107,383,514,405
pexels-photo-379419.jpeg,200,133,road,2,81,196,131
pexels-photo-388304.jpeg,200,133,road,1,100,187,133
pexels-photo-388304.jpeg,200,133,road,35,90,160,98
pexels-photo-388304.jpeg,200,133,road,77,81,151,87
pexels-photo-388304.jpeg,200,133,road,104,75,138,79
pexels-photo-39811.jpeg,640,426,road,294,250,361,255
pexels-photo-39811.jpeg,640,426,road,283,259,377,266
pexels-photo-39811.jpeg,640,426,road,245,269,400,278
pexels-photo-39811.jpeg,640,426,road,208,281,434,291
pexels-photo-39811.jpeg,640,426,road,172,294,459,306
pexels-photo-39811.jpeg,640,426,road,151,308,496,320
pexels-photo-39811.jpeg,640,426,road,114,323,534,343
pexels-photo-39811.jpeg,640,426,road,71,346,589,362
pexels-photo-39811.jpeg,640,426,road,37,366,635,423
pexels-photo-399636.jpeg,640,425,road,204,8,312,31
pexels-photo-411472.jpeg,640,421,road,210,281,344,296
pexels-photo-411472.jpeg,640,421,road,178,300,349,319
pexels-photo-411472.jpeg,640,421,road,158,324,450,340
pexels-photo-411472.jpeg,640,421,road,215,346,630,368
pexels-photo-414618.jpeg,640,305,road,183,166,458,174
pexels-photo-414618.jpeg,640,305,road,124,177,528,187
pexels-photo-414618.jpeg,640,305,road,6,190,616,197
pexels-photo-414618.jpeg,640,305,road,1,202,639,217
pexels-photo-414618.jpeg,640,305,road,1,221,637,303
pexels-photo-416956.jpeg,640,233,road,279,140,408,143
pexels-photo-416956.jpeg,640,233,road,279,147,479,157
pexels-photo-416956.jpeg,640,233,road,261,159,510,170
pexels-photo-416956.jpeg,640,233,road,243,173,545,183
pexels-photo-416956.jpeg,640,233,road,218,184,579,194
pexels-photo-416956.jpeg,640,233,road,197,197,634,232
pexels-photo-416974.jpeg,640,480,road,300,200,364,205
pexels-photo-416974.jpeg,640,480,road,255,210,371,218
pexels-photo-416974.jpeg,640,480,road,226,222,388,230
pexels-photo-416974.jpeg,640,480,road,193,233,411,243
pexels-photo-416974.jpeg,640,480,road,158,248,433,262
pexels-photo-416974.jpeg,640,480,road,124,267,474,281
pexels-photo-416974.jpeg,640,480,road,100,287,534,308
pexels-photo-416974.jpeg,640,480,road,70,315,567,328
pexels-photo-416974.jpeg,640,480,road,27,332,631,478
pexels-photo-428431.jpeg,640,427,road,451,268,523,271
pexels-photo-428431.jpeg,640,427,road,421,272,532,281
pexels-photo-428431.jpeg,640,427,road,261,281,556,295
pexels-photo-428431.jpeg,640,427,road,11,300,637,426
pexels-photo-449004.jpeg,640,426,road,361,321,421,326
pexels-photo-449004.jpeg,640,426,road,330,328,429,334
pexels-photo-449004.jpeg,640,426,road,302,336,438,346
pexels-photo-449004.jpeg,640,426,road,256,351,460,359
pexels-photo-449004.jpeg,640,426,road,217,362,470,368
pexels-photo-449004.jpeg,640,426,road,166,373,483,388
pexels-photo-449004.jpeg,640,426,road,98,393,516,425
pexels-photo-45775.jpeg,640,476,road,304,254,339,258
pexels-photo-45775.jpeg,640,476,road,290,260,348,268
pexels-photo-45775.jpeg,640,476,road,264,269,376,285
pexels-photo-45775.jpeg,640,476,road,216,286,418,299
pexels-photo-45775.jpeg,640,476,road,184,302,452,315
pexels-photo-45775.jpeg,640,476,road,152,317,487,331
pexels-photo-45775.jpeg,640,476,road,112,333,524,351
pexels-photo-45775.jpeg,640,476,road,61,353,579,377
pexels-photo-45775.jpeg,640,476,road,4,378,635,476
pexels-photo-461877.jpeg,640,425,road,2,393,638,423
pexels-photo-461877.jpeg,640,425,road,1,353,639,391
pexels-photo-461877.jpeg,640,425,road,1,305,639,352
pexels-photo-461877.jpeg,640,425,road,1,262,601,304
pexels-photo-461877.jpeg,640,425,road,2,232,597,260
pexels-photo-461877.jpeg,640,425,road,2,221,577,231
pexels-photo-461877.jpeg,640,425,road,2,213,462,220
pexels-photo-461877.jpeg,640,425,road,2,196,263,212
pexels-photo-461901.jpeg,640,299,road,296,80,340,85
pexels-photo-461901.jpeg,640,299,road,290,87,344,93
pexels-photo-461901.jpeg,640,299,road,282,96,353,101
pexels-photo-461901.jpeg,640,299,road,276,103,362,109
pexels-photo-461901.jpeg,640,299,road,269,111,374,117
pexels-photo-461901.jpeg,640,299,road,260,119,386,135
pexels-photo-461901.jpeg,640,299,road,223,138,440,145
pexels-photo-461901.jpeg,640,299,road,214,149,470,157
pexels-photo-461901.jpeg,640,299,road,195,160,506,170
pexels-photo-461901.jpeg,640,299,road,173,172,549,184
pexels-photo-461901.jpeg,640,299,road,151,188,600,197
pexels-photo-461901.jpeg,640,299,road,133,200,635,208
pexels-photo-461901.jpeg,640,299,road,117,211,635,226
pexels-photo-461901.jpeg,640,299,road,88,230,635,243
pexels-photo-461901.jpeg,640,299,road,72,246,638,296
pexels-photo-464332.jpeg,640,426,road,348,242,373,247
pexels-photo-464332.jpeg,640,426,road,337,249,385,253
pexels-photo-464332.jpeg,640,426,road,324,255,395,258
pexels-photo-464332.jpeg,640,426,road,311,261,408,266
pexels-photo-464332.jpeg,640,426,road,292,268,416,275
pexels-photo-464332.jpeg,640,426,road,268,278,434,285
pexels-photo-464332.jpeg,640,426,road,245,288,449,298
pexels-photo-464332.jpeg,640,426,road,226,301,473,310
pexels-photo-464332.jpeg,640,426,road,201,313,494,325
pexels-photo-464332.jpeg,640,426,road,174,328,514,341
pexels-photo-464332.jpeg,640,426,road,133,344,544,364
pexels-photo-464332.jpeg,640,426,road,91,368,586,387
pexels-photo-464332.jpeg,640,426,road,2,390,635,420
pexels-photo-490466.jpeg,200,150,road,91,73,112,74
pexels-photo-490466.jpeg,200,150,road,84,76,116,77
pexels-photo-490466.jpeg,200,150,road,74,78,125,81
pexels-photo-490466.jpeg,200,150,road,62,82,133,88
pexels-photo-490466.jpeg,200,150,road,42,90,150,94
pexels-photo-490466.jpeg,200,150,road,27,96,159,101
pexels-photo-490466.jpeg,200,150,road,8,103,174,110
pexels-photo-490466.jpeg,200,150,road,1,112,197,150
pexels-photo-531321.jpeg,200,133,road,81,81,112,84
pexels-photo-531321.jpeg,200,133,road,76,86,122,88
pexels-photo-531321.jpeg,200,133,road,71,89,129,93
pexels-photo-531321.jpeg,200,133,road,60,94,137,97
pexels-photo-531321.jpeg,200,133,road,53,99,144,102
pexels-photo-531321.jpeg,200,133,road,42,104,153,107
pexels-photo-531321.jpeg,200,133,road,35,109,163,111
pexels-photo-531321.jpeg,200,133,road,29,113,168,116
pexels-photo-531321.jpeg,200,133,road,21,118,178,122
pexels-photo-533671.jpeg,640,426,road,289,284,350,287
pexels-photo-533671.jpeg,640,426,road,259,289,375,296
pexels-photo-533671.jpeg,640,426,road,191,299,444,304
pexels-photo-533671.jpeg,640,426,road,127,306,509,316
pexels-photo-533671.jpeg,640,426,road,44,318,594,326
pexels-photo-533671.jpeg,640,426,road,1,330,640,343
pexels-photo-533671.jpeg,640,426,road,1,347,637,422
pexels-photo-533671.jpeg,640,426,road,303,277,331,283
pexels-photo-533744.jpeg,640,479,road,261,267,403,273
pexels-photo-533744.jpeg,640,479,road,230,275,443,281
pexels-photo-533744.jpeg,640,479,road,199,285,472,292
pexels-photo-533744.jpeg,640,479,road,166,295,502,304
pexels-photo-533744.jpeg,640,479,road,121,308,539,315
pexels-photo-533744.jpeg,640,479,road,62,319,569,326
pexels-photo-533744.jpeg,640,479,road,35,331,607,344
pexels-photo-533744.jpeg,640,479,road,3,347,636,372
pexels-photo-533744.jpeg,640,479,road,2,377,637,477
pexels-photo-533744.jpeg,640,479,car,332,238,361,266
pexels-photo-533744.jpeg,640,479,car,308,246,325,259
pexels-photo-548084.jpeg,640,426,road,161,244,364,248
pexels-photo-548084.jpeg,640,426,road,128,251,402,256
pexels-photo-548084.jpeg,640,426,road,93,256,635,265
pexels-photo-548084.jpeg,640,426,road,58,268,637,278
pexels-photo-548084.jpeg,640,426,road,1,280,637,422
pexels-photo-57645.jpeg,640,426,road,304,288,378,292
pexels-photo-57645.jpeg,640,426,road,303,295,400,300
pexels-photo-57645.jpeg,640,426,road,302,303,431,308
pexels-photo-57645.jpeg,640,426,road,297,311,470,316
pexels-photo-57645.jpeg,640,426,road,283,318,506,324
pexels-photo-57645.jpeg,640,426,road,267,328,547,333
pexels-photo-57645.jpeg,640,426,road,232,337,585,341
pexels-photo-57645.jpeg,640,426,road,207,344,614,357
pexels-photo-57645.jpeg,640,426,road,120,359,637,365
pexels-photo-57645.jpeg,640,426,road,61,367,638,378
pexels-photo-57645.jpeg,640,426,road,1,381,640,425
pexels-photo-57652.jpeg,640,449,road,263,315,359,319
pexels-photo-57652.jpeg,640,449,road,258,320,369,324
pexels-photo-57652.jpeg,640,449,road,246,326,376,330
pexels-photo-57652.jpeg,640,449,road,230,331,392,338
pexels-photo-57652.jpeg,640,449,road,213,340,403,348
pexels-photo-57652.jpeg,640,449,road,175,350,430,357
pexels-photo-57652.jpeg,640,449,road,144,358,474,367
pexels-photo-57652.jpeg,640,449,road,81,369,511,382
pexels-photo-57652.jpeg,640,449,road,2,384,640,448
pexels-photo-592063.jpeg,640,426,car,271,304,309,340
pexels-photo-592063.jpeg,640,426,car,344,307,393,345
pexels-photo-592063.jpeg,640,426,car,322,307,343,330
pexels-photo-592063.jpeg,640,426,car,435,312,470,333
pexels-photo-592063.jpeg,640,426,car,495,311,544,341
pexels-photo-592063.jpeg,640,426,road,233,348,545,354
pexels-photo-592063.jpeg,640,426,road,187,358,581,365
pexels-photo-592063.jpeg,640,426,road,156,368,637,375
pexels-photo-592063.jpeg,640,426,road,134,379,640,424
pexels-photo-593172.jpeg,640,426,road,222,242,454,249
pexels-photo-593172.jpeg,640,426,road,170,251,479,258
pexels-photo-593172.jpeg,640,426,road,100,261,538,271
pexels-photo-593172.jpeg,640,426,road,46,274,562,298
pexels-photo-593172.jpeg,640,426,car,357,220,378,240
pexels-photo-614484.jpeg,640,428,road,313,230,348,233
pexels-photo-614484.jpeg,640,428,road,304,235,358,237
pexels-photo-614484.jpeg,640,428,road,295,239,365,243
pexels-photo-614484.jpeg,640,428,road,287,246,378,250
pexels-photo-614484.jpeg,640,428,road,271,253,391,258
pexels-photo-614484.jpeg,640,428,road,256,261,408,268
pexels-photo-614484.jpeg,640,428,road,237,270,428,275
pexels-photo-614484.jpeg,640,428,road,224,278,448,287
pexels-photo-614484.jpeg,640,428,road,209,291,465,302
pexels-photo-614484.jpeg,640,428,road,183,305,482,319
pexels-photo-614484.jpeg,640,428,road,171,324,491,424
pexels-photo-655837.jpeg,640,426,road,300,166,321,171
pexels-photo-655837.jpeg,640,426,road,293,176,326,179
pexels-photo-655837.jpeg,640,426,road,287,182,330,185
pexels-photo-655837.jpeg,640,426,road,283,188,332,190
pexels-photo-655837.jpeg,640,426,road,281,193,337,195
pexels-photo-655837.jpeg,640,426,road,274,198,344,202
pexels-photo-655837.jpeg,640,426,road,260,205,362,211
pexels-photo-655837.jpeg,640,426,road,234,214,387,222
pexels-photo-655837.jpeg,640,426,road,214,223,403,232
pexels-photo-655837.jpeg,640,426,road,192,234,420,244
pexels-photo-655837.jpeg,640,426,road,170,246,434,254
pexels-photo-655837.jpeg,640,426,road,149,257,456,270
pexels-photo-655837.jpeg,640,426,road,110,273,482,283
pexels-photo-655837.jpeg,640,426,road,91,286,504,295
pexels-photo-655837.jpeg,640,426,road,70,297,529,308
pexels-photo-655837.jpeg,640,426,road,39,310,554,328
pexels-photo-655837.jpeg,640,426,road,3,332,605,423
pexels-photo-672597.jpeg,640,426,road,285,209,347,213
pexels-photo-672597.jpeg,640,426,road,265,216,375,219
pexels-photo-672597.jpeg,640,426,road,244,221,392,226
pexels-photo-672597.jpeg,640,426,road,216,229,428,236
pexels-photo-672597.jpeg,640,426,road,185,238,471,247
pexels-photo-672597.jpeg,640,426,road,135,250,521,256
pexels-photo-672597.jpeg,640,426,road,103,259,555,278
pexels-photo-672597.jpeg,640,426,road,26,280,636,422
pexels-photo-696680.jpeg,640,426,road,300,288,346,293
pexels-photo-696680.jpeg,640,426,road,269,295,352,301
pexels-photo-696680.jpeg,640,426,road,245,303,363,312
pexels-photo-696680.jpeg,640,426,road,205,315,381,327
pexels-photo-696680.jpeg,640,426,road,157,328,411,336
pexels-photo-696680.jpeg,640,426,road,118,338,420,355
pexels-photo-696680.jpeg,640,426,road,2,358,463,426
pexels-photo-716421.jpeg,640,426,person,407,107,483,229
pexels-photo-716421.jpeg,640,426,moto,400,227,492,346
pexels-photo-724495.jpeg,640,426,car,303,191,497,309
pexels-photo-724495.jpeg,640,426,person,34,165,63,273
pexels-photo-730218.jpeg,640,426,road,288,210,338,213
pexels-photo-730218.jpeg,640,426,road,275,217,351,223
pexels-photo-730218.jpeg,640,426,road,259,226,362,232
pexels-photo-730218.jpeg,640,426,road,243,235,377,241
pexels-photo-730218.jpeg,640,426,road,228,244,389,252
pexels-photo-730218.jpeg,640,426,road,213,255,403,267
pexels-photo-730218.jpeg,640,426,road,189,270,432,283
pexels-photo-730218.jpeg,640,426,road,164,287,453,300
pexels-photo-730218.jpeg,640,426,road,138,301,485,315
pexels-photo-730218.jpeg,640,426,road,105,319,514,335
pexels-photo-730218.jpeg,640,426,road,64,338,547,353
pexels-photo-730218.jpeg,640,426,road,26,355,578,371
pexels-photo-730662.jpeg,640,426,road,248,246,326,251
pexels-photo-730662.jpeg,640,426,road,233,254,336,259
pexels-photo-730662.jpeg,640,426,road,218,262,347,266
pexels-photo-730662.jpeg,640,426,road,209,268,362,278
pexels-photo-730662.jpeg,640,426,road,202,283,393,290
pexels-photo-730662.jpeg,640,426,road,196,293,420,300
pexels-photo-730662.jpeg,640,426,road,193,305,447,311
pexels-photo-730662.jpeg,640,426,road,187,314,483,321
pexels-photo-730662.jpeg,640,426,road,183,325,502,332
pexels-photo-730662.jpeg,640,426,road,179,337,539,348
pexels-photo-730662.jpeg,640,426,road,175,352,636,423
pexels-photo-756861.jpeg,640,426,road,520,214,611,219
pexels-photo-756861.jpeg,640,426,road,438,220,604,227
pexels-photo-756861.jpeg,640,426,road,339,230,600,236
pexels-photo-756861.jpeg,640,426,road,274,238,613,245
pexels-photo-756861.jpeg,640,426,road,245,248,636,257
pexels-photo-756861.jpeg,640,426,road,207,260,636,284
pexels-photo-756861.jpeg,640,426,road,142,288,636,424
pexels-photo-764293.jpeg,640,412,road,307,254,337,257
pexels-photo-764293.jpeg,640,412,road,282,258,347,262
pexels-photo-764293.jpeg,640,412,road,264,263,358,268
pexels-photo-764293.jpeg,640,412,road,234,270,377,279
pexels-photo-764293.jpeg,640,412,road,171,281,409,292
pexels-photo-764293.jpeg,640,412,road,92,294,456,307
pexels-photo-764293.jpeg,640,412,road,15,309,496,323
pexels-photo-764293.jpeg,640,412,road,1,327,531,408
pexels-photo-804113.jpeg,640,427,road,235,249,336,255
pexels-photo-804113.jpeg,640,427,road,220,258,411,264
pexels-photo-804113.jpeg,640,427,road,207,267,463,274
pexels-photo-804113.jpeg,640,427,road,196,277,527,286
pexels-photo-804113.jpeg,640,427,road,184,289,578,301
pexels-photo-804113.jpeg,640,427,road,171,303,632,314
pexels-photo-804113.jpeg,640,427,road,158,318,639,422
pexels-photo-874629.jpeg,640,426,car,297,211,331,244
pexels-photo-874629.jpeg,640,426,car,226,216,267,248
pexels-photo-874629.jpeg,640,426,person,459,186,501,344
pexels-photo-874629.jpeg,640,426,person,519,209,555,345
pexels-photo-877227.jpeg,640,425,road,1,344,640,424
pexels-photo-877227.jpeg,640,425,road,92,315,571,340
pexels-photo-877227.jpeg,640,425,road,139,293,494,317
pexels-photo-877227.jpeg,640,425,road,183,277,454,291
pexels-photo-877227.jpeg,640,425,road,237,264,422,277
pexels-photo-877227.jpeg,640,425,road,300,252,404,260
pexels-photo-894359.jpeg,640,426,road,254,141,459,148
pexels-photo-894359.jpeg,640,426,road,87,151,638,159
pexels-photo-894359.jpeg,640,426,road,1,161,639,424
pexels-photo-90633.jpeg,640,426,road,264,227,375,230
pexels-photo-90633.jpeg,640,426,road,227,232,413,241
pexels-photo-90633.jpeg,640,426,road,164,245,474,257
pexels-photo-90633.jpeg,640,426,road,93,260,555,276
pexels-photo-90633.jpeg,640,426,road,1,280,636,423
pexels-photo-930687.jpeg,640,360,road,278,123,363,126
pexels-photo-930687.jpeg,640,360,road,243,129,395,135
pexels-photo-930687.jpeg,640,360,road,170,138,454,148
pexels-photo-930687.jpeg,640,360,road,76,151,578,161
pexels-photo-930687.jpeg,640,360,road,3,163,639,181
pexels-photo-930687.jpeg,640,360,road,2,186,640,358
pexels-photo-9888.jpeg,640,425,road,223,337,285,343
pexels-photo-9888.jpeg,640,425,road,218,346,303,352
pexels-photo-9888.jpeg,640,425,road,216,353,334,359
pexels-photo-9888.jpeg,640,425,road,210,362,386,371
pexels-photo-9888.jpeg,640,425,road,186,374,442,386
pexels-photo-9888.jpeg,640,425,road,144,389,479,401
pexels-photo-9888.jpeg,640,425,road,91,404,500,423
pexels-photo-995487(1).jpeg,640,407,road,2,282,640,405
pexels-photo-995487(1).jpeg,640,407,road,247,254,623,279
pexels-photo-995487.jpeg,640,407,road,2,277,637,405
pexels-photo-995487.jpeg,640,407,road,246,254,625,274
pexels-photo.jpg,640,426,road,283,320,366,325
pexels-photo.jpg,640,426,road,281,328,391,335
pexels-photo.jpg,640,426,road,265,337,415,343
pexels-photo.jpg,640,426,road,251,345,431,353
pexels-photo.jpg,640,426,road,221,355,442,362
pexels-photo.jpg,640,426,road,197,364,456,369
pexels-photo.jpg,640,426,road,176,372,475,381
pexels-photo.jpg,640,426,road,141,383,477,426
PSP2.jpg,1500,1000,car,230,493,519,635
PSP2.jpg,1500,1000,car,509,476,603,564
PSP2.jpg,1500,1000,car,676,445,773,553
PSP2.jpg,1500,1000,car,1033,456,1132,531
PSP2.jpg,1500,1000,moto,928,446,948,474
PSP2.jpg,1500,1000,bus,1159,357,1250,425
PSP2.jpg,1500,1000,road,543,576,1227,612
PSP2.jpg,1500,1000,road,431,646,1292,684
PSP2.jpg,1500,1000,road,353,685,1342,742
PSP2.jpg,1500,1000,road,239,748,1409,800
PSP2.jpg,1500,1000,road,132,802,1489,991
racetrack.jpg,800,600,road,329,296,390,301
racetrack.jpg,800,600,road,319,305,405,311
racetrack.jpg,800,600,road,300,314,417,322
racetrack.jpg,800,600,road,252,325,438,330
racetrack.jpg,800,600,road,232,333,481,340
racetrack.jpg,800,600,road,203,342,516,354
racetrack.jpg,800,600,road,144,356,563,371
racetrack.jpg,800,600,road,1,373,800,598
road-asphalt-space-sky-56832.jpeg,200,137,road,1,107,199,135
road-asphalt-space-sky-56832.jpeg,200,137,road,21,95,173,106
road-asphalt-space-sky-56832.jpeg,200,137,road,48,84,146,94
road-asphalt-space-sky-56832.jpeg,200,137,road,69,76,122,83
Road-Diets-before-pic-of-Valencia-1.jpg,1600,982,car,159,426,326,520
Road-Diets-before-pic-of-Valencia-1.jpg,1600,982,car,1003,389,1126,472
Road-Diets-before-pic-of-Valencia-1.jpg,1600,982,car,454,383,546,445
Road-Diets-before-pic-of-Valencia-1.jpg,1600,982,car,333,413,424,481
Road-Diets-before-pic-of-Valencia-1.jpg,1600,982,road,152,539,1591,605
Road-Diets-before-pic-of-Valencia-1.jpg,1600,982,road,341,487,1355,537
Road-Diets-before-pic-of-Valencia-1.jpg,1600,982,road,564,436,997,474
Road-Diets-before-pic-of-Valencia-1.jpg,1600,982,road,3,618,1590,970
Road-Diets-before-pic-of-Valencia-1.jpg,1600,982,road,689,389,890,428
road-endless-straight-long.jpg,640,426,road,295,259,383,264
road-endless-straight-long.jpg,640,426,road,253,266,419,274
road-endless-straight-long.jpg,640,426,road,204,277,481,288
road-endless-straight-long.jpg,640,426,road,134,292,539,303
road-endless-straight-long.jpg,640,426,road,86,307,593,317
road-endless-straight-long.jpg,640,426,road,12,322,633,423
road-fog-foggy-mist.jpg,640,426,road,290,290,391,295
road-fog-foggy-mist.jpg,640,426,road,262,300,419,307
road-fog-foggy-mist.jpg,640,426,road,235,311,445,320
road-fog-foggy-mist.jpg,640,426,road,199,324,495,332
road-fog-foggy-mist.jpg,640,426,road,172,336,514,349
road-fog-foggy-mist.jpg,640,426,road,139,353,540,364
road-fog-foggy-mist.jpg,640,426,road,83,368,568,380
road-fog-foggy-mist.jpg,640,426,road,7,385,631,419
road-mountains-sunset-path-163848.jpeg,200,133,road,1,102,200,132
road-nature-lines-country.jpg,640,480,road,247,249,304,253
road-nature-lines-country.jpg,640,480,road,322,250,389,253
road-nature-lines-country.jpg,640,480,road,238,257,403,259
road-nature-lines-country.jpg,640,480,road,224,261,423,266
road-nature-lines-country.jpg,640,480,road,187,268,474,274
road-nature-lines-country.jpg,640,480,road,136,277,526,284
road-nature-lines-country.jpg,640,480,road,59,288,617,297
road-nature-lines-country.jpg,640,480,road,2,301,636,475
road-pic_web.jpg,799,549,road,244,119,556,124
road-pic_web.jpg,799,549,road,169,126,608,136
road-pic_web.jpg,799,549,road,80,138,680,152
road-pic_web.jpg,799,549,road,5,156,788,175
road-pic_web.jpg,799,549,road,2,181,797,547
road-pic_web.jpg,799,549,road,330,103,434,116
road-pic_web.jpg,799,549,road,358,85,414,99
road-speed-secondary-road-country-road-60568.jpeg,640,480,road,230,238,295,244
road-speed-secondary-road-country-road-60568.jpeg,640,480,road,213,248,312,252
road-speed-secondary-road-country-road-60568.jpeg,640,480,road,185,256,338,263
road-speed-secondary-road-country-road-60568.jpeg,640,480,road,166,266,374,271
road-speed-secondary-road-country-road-60568.jpeg,640,480,road,160,276,412,286
road-speed-secondary-road-country-road-60568.jpeg,640,480,road,167,291,461,301
road-speed-secondary-road-country-road-60568.jpeg,640,480,road,174,306,540,322
road-speed-secondary-road-country-road-60568.jpeg,640,480,road,187,326,636,337
road-speed-secondary-road-country-road-60568.jpeg,640,480,road,196,341,638,366
road-speed-secondary-road-country-road-60568.jpeg,640,480,road,228,370,638,426
road-speed-secondary-road-country-road-60568.jpeg,640,480,road,282,432,637,476
road-straight.jpg,640,426,road,311,290,358,293
road-straight.jpg,640,426,road,299,295,368,299
road-straight.jpg,640,426,road,280,302,383,307
road-straight.jpg,640,426,road,253,308,408,318
road-straight.jpg,640,426,road,231,320,433,326
road-straight.jpg,640,426,road,205,328,445,337
road-straight.jpg,640,426,road,167,339,471,349
road-straight.jpg,640,426,road,137,351,497,361
road-straight.jpg,640,426,road,96,363,529,378
road-straight.jpg,640,426,road,52,381,555,426
road-street-forest-fog.jpg,640,426,road,296,328,366,331
road-street-forest-fog.jpg,640,426,road,283,333,382,342
road-street-forest-fog.jpg,640,426,road,259,345,409,351
road-street-forest-fog.jpg,640,426,road,236,351,431,362
road-street-forest-fog.jpg,640,426,road,206,364,455,370
road-street-forest-fog.jpg,640,426,road,189,372,474,383
road-street-forest-fog.jpg,640,426,road,153,386,506,395
road-street-forest-fog.jpg,640,426,road,122,397,534,424
Roads.jpg,448,336,road,305,162,361,169
Roads.jpg,448,336,road,272,170,354,177
Roads.jpg,448,336,road,257,178,348,182
Roads.jpg,448,336,road,238,183,347,189
Roads.jpg,448,336,road,227,191,347,199
Roads.jpg,448,336,road,215,205,353,214
Roads.jpg,448,336,road,210,219,364,228
Roads.jpg,448,336,road,211,231,376,244
Roads.jpg,448,336,road,215,249,402,271
Roads.jpg,448,336,road,228,276,442,290
Roads.jpg,448,336,road,242,293,446,311
Roads.jpg,448,336,person,153,219,168,252
sa15005_img7.jpg,500,234,road,224,82,368,85
sa15005_img7.jpg,500,234,road,189,86,362,92
sa15005_img7.jpg,500,234,road,148,94,361,102
sa15005_img7.jpg,500,234,road,84,105,372,114
sa15005_img7.jpg,500,234,road,47,115,395,123
sa15005_img7.jpg,500,234,road,22,126,414,138
sa15005_img7.jpg,500,234,road,1,142,455,230
Street_in_Holland_Village.jpg,1600,1069,road,715,731,962,757
Street_in_Holland_Village.jpg,1600,1069,road,639,773,1042,792
Street_in_Holland_Village.jpg,1600,1069,road,571,805,1099,828
Street_in_Holland_Village.jpg,1600,1069,road,495,839,1172,867
Street_in_Holland_Village.jpg,1600,1069,road,408,875,1245,915
Street_in_Holland_Village.jpg,1600,1069,road,308,919,1333,961
Street_in_Holland_Village.jpg,1600,1069,road,221,970,1417,1053
st_andrews_road01.jpg,2272,1704,road,964,491,1306,516
st_andrews_road01.jpg,2272,1704,road,943,525,1362,548
st_andrews_road01.jpg,2272,1704,road,918,562,1435,591
st_andrews_road01.jpg,2272,1704,road,864,600,1483,629
st_andrews_road01.jpg,2272,1704,road,837,641,1493,673
st_andrews_road01.jpg,2272,1704,road,776,685,1491,741
st_andrews_road01.jpg,2272,1704,road,712,754,1866,812
st_andrews_road01.jpg,2272,1704,road,649,827,2078,904
st_andrews_road01.jpg,2272,1704,road,528,916,2270,1004
st_andrews_road01.jpg,2272,1704,road,437,1014,2266,1110
st_andrews_road01.jpg,2272,1704,road,208,1123,2256,1252
st_andrews_road01.jpg,2272,1704,road,10,1266,2251,1685
st_andrews_road01.jpg,2272,1704,car,1485,493,1795,721
st_andrews_road01.jpg,2272,1704,car,16,352,370,493
Toolkit.jpg,600,402,road,110,259,540,286
Toolkit.jpg,600,402,road,70,288,532,308
Toolkit.jpg,600,402,road,2,312,530,337
Toolkit.jpg,600,402,road,240,233,523,256
Toolkit.jpg,600,402,road,304,212,463,229
Toolkit.jpg,600,402,road,262,187,305,194
Toolkit.jpg,600,402,road,1,342,484,394
Truck-driver-detained-for-fetal-bus-stop-crash-in-Pat-Heung-04Jan18-630x378.jpg,630,378,road,3,329,626,373
Truck-driver-detained-for-fetal-bus-stop-crash-in-Pat-Heung-04Jan18-630x378.jpg,630,378,road,133,285,516,327
Truck-driver-detained-for-fetal-bus-stop-crash-in-Pat-Heung-04Jan18-630x378.jpg,630,378,road,132,234,268,280
Truck-driver-detained-for-fetal-bus-stop-crash-in-Pat-Heung-04Jan18-630x378.jpg,630,378,car,46,248,129,327
Tuen_Mun_Road_So_Kwun_Wat_Section_201210.jpg,2272,1704,road,256,1183,1118,1214
Tuen_Mun_Road_So_Kwun_Wat_Section_201210.jpg,2272,1704,road,199,1227,1214,1281
Tuen_Mun_Road_So_Kwun_Wat_Section_201210.jpg,2272,1704,road,118,1296,1439,1402
Tuen_Mun_Road_So_Kwun_Wat_Section_201210.jpg,2272,1704,road,3,1423,2149,1687
Tuen_Mun_Road_So_Kwun_Wat_Section_201210.jpg,2272,1704,road,1208,1093,1499,1129
Tuen_Mun_Road_So_Kwun_Wat_Section_201210.jpg,2272,1704,road,1285,1131,1681,1187
Tuen_Mun_Road_So_Kwun_Wat_Section_201210.jpg,2272,1704,car,676,1035,820,1162
Tuen_Mun_Road_So_Kwun_Wat_Section_201210.jpg,2272,1704,truck,453,956,591,1083
Tuen_Mun_Road_So_Kwun_Wat_Section_201210.jpg,2272,1704,bus,1137,908,1353,1073
Tuen_Mun_Road_So_Kwun_Wat_Section_201210.jpg,2272,1704,car,991,991,1110,1071
Tuen_Mun_Road_So_Kwun_Wat_Section_201210.jpg,2272,1704,car,876,966,922,1006
Tuen_Mun_Road_Tai_Lam_Section_201504.jpg,1200,792,car,616,445,662,487
Tuen_Mun_Road_Tai_Lam_Section_201504.jpg,1200,792,truck,554,415,586,454
Tuen_Mun_Road_Tai_Lam_Section_201504.jpg,1200,792,road,448,494,793,509
Tuen_Mun_Road_Tai_Lam_Section_201504.jpg,1200,792,road,430,514,847,529
Tuen_Mun_Road_Tai_Lam_Section_201504.jpg,1200,792,road,387,536,912,566
Tuen_Mun_Road_Tai_Lam_Section_201504.jpg,1200,792,road,346,570,977,595
Tuen_Mun_Road_Tai_Lam_Section_201504.jpg,1200,792,road,296,599,1105,626
Tuen_Mun_Road_Tai_Lam_Section_201504.jpg,1200,792,road,260,632,1172,676
Tuen_Mun_Road_Tai_Lam_Section_201504.jpg,1200,792,road,189,678,1184,777
Tuen_Mun_Road_Tsing_Lung_Tau_Section_201210.jpg,2272,1704,road,558,1198,1933,1221
Tuen_Mun_Road_Tsing_Lung_Tau_Section_201210.jpg,2272,1704,road,512,1237,2099,1285
Tuen_Mun_Road_Tsing_Lung_Tau_Section_201210.jpg,2272,1704,road,470,1308,2249,1683
Tuen_Mun_Road_Tsing_Lung_Tau_Section_201210.jpg,2272,1704,road,556,1085,1491,1187
Tuen_Mun_Road_Tsing_Lung_Tau_Section_201210.jpg,2272,1704,road,1499,1129,1791,1187
Tuen_Mun_Road_Tsing_Lung_Tau_Section_201210.jpg,2272,1704,road,676,1008,972,1066
Tuen_Mun_Road_Tsing_Lung_Tau_Section_201210.jpg,2272,1704,road,1001,1031,1312,1075
Tuen_Mun_Road_Tsing_Lung_Tau_Section_201210.jpg,2272,1704,road,726,971,897,1004
Tuen_Mun_Road_Tsing_Lung_Tau_Section_201210.jpg,2272,1704,truck,983,921,1112,1031
Tuen_Mun_Road_Tsing_Lung_Tau_Section_201210.jpg,2272,1704,car,910,925,956,964
usa-travel-road-route-66-163767.jpeg,640,426,road,3,283,637,423
usa-travel-road-route-66-163767.jpeg,640,426,road,152,250,533,282
usa-travel-road-route-66-163767.jpeg,640,426,road,230,233,446,247
Western_HT_3.jpg,1024,768,road,334,525,1023,585
Western_HT_3.jpg,1024,768,road,200,589,763,685
Western_HT_3.jpg,1024,768,road,56,695,704,765
Western_HT_3.jpg,1024,768,road,7,507,326,582
Western_HT_3.jpg,1024,768,road,395,495,683,523
Western_HT_3.jpg,1024,768,car,691,465,743,525
Western_HT_3.jpg,1024,768,car,764,456,805,490
Western_HT_3.jpg,1024,768,car,517,445,564,492
Western_HT_3.jpg,1024,768,car,6,465,71,507
Western_HT_3.jpg,1024,768,car,182,456,236,490
Western_HT_3.jpg,1024,768,placat,203,309,491,349
woodland-road-falling-leaf-natural-38537.jpeg,200,133,placat,21,90,178,131
wts-fac-1114-019-large.jpg,1000,665,road,197,265,278,273
wts-fac-1114-019-large.jpg,1000,665,road,189,277,290,290
wts-fac-1114-019-large.jpg,1000,665,road,185,296,300,312
wts-fac-1114-019-large.jpg,1000,665,road,172,319,310,335
wts-fac-1114-019-large.jpg,1000,665,road,163,341,320,352
wts-fac-1114-019-large.jpg,1000,665,road,155,356,335,376
wts-fac-1114-019-large.jpg,1000,665,road,147,382,349,406
wts-fac-1114-019-large.jpg,1000,665,road,134,411,358,446
wts-fac-1114-019-large.jpg,1000,665,road,114,452,378,529
wts-fac-1114-019-large.jpg,1000,665,road,80,531,429,661
wts-fac-1114-019-large.jpg,1000,665,road,18,302,139,342
wts-fac-1114-019-large.jpg,1000,665,road,1,346,104,407
wts-fac-1114-019-large.jpg,1000,665,road,57,269,171,294
